dv/flow_cntr/test.vcd
$date
	Mon Aug 10 20:22:58 2015
$end
$version
	QuestaSim Version 10.2c
$end
$timescale
	10ps
$end

$scope module flow_cntr_test_top $end
$var integer 32 ! simulation_cycle $end

$scope module flow_cntr_test $end

$scope function aes_encrypt_shiftrows_test $end
$upscope $end

$scope task gen_reset $end
$upscope $end

$scope task gen_and_drive_block_data $end
$upscope $end

$scope task drive_flow_cntr $end
$upscope $end

$scope task display_regs $end
$upscope $end

$scope task check_data_accept $end
$upscope $end

$scope task check_x_regs $end
$upscope $end

$scope task check_shiftrows $end
$upscope $end

$scope task check_mix_columns_off $end
$upscope $end

$scope task check_data_out $end
$upscope $end

$scope task test_end $end
$upscope $end
$upscope $end

$scope module flow_cntr $end
$var wire 1 " clk $end
$var wire 1 # reset $end
$var wire 1 $ block_data_in [127] $end
$var wire 1 % block_data_in [126] $end
$var wire 1 & block_data_in [125] $end
$var wire 1 ' block_data_in [124] $end
$var wire 1 ( block_data_in [123] $end
$var wire 1 ) block_data_in [122] $end
$var wire 1 * block_data_in [121] $end
$var wire 1 + block_data_in [120] $end
$var wire 1 , block_data_in [119] $end
$var wire 1 - block_data_in [118] $end
$var wire 1 . block_data_in [117] $end
$var wire 1 / block_data_in [116] $end
$var wire 1 0 block_data_in [115] $end
$var wire 1 1 block_data_in [114] $end
$var wire 1 2 block_data_in [113] $end
$var wire 1 3 block_data_in [112] $end
$var wire 1 4 block_data_in [111] $end
$var wire 1 5 block_data_in [110] $end
$var wire 1 6 block_data_in [109] $end
$var wire 1 7 block_data_in [108] $end
$var wire 1 8 block_data_in [107] $end
$var wire 1 9 block_data_in [106] $end
$var wire 1 : block_data_in [105] $end
$var wire 1 ; block_data_in [104] $end
$var wire 1 < block_data_in [103] $end
$var wire 1 = block_data_in [102] $end
$var wire 1 > block_data_in [101] $end
$var wire 1 ? block_data_in [100] $end
$var wire 1 @ block_data_in [99] $end
$var wire 1 A block_data_in [98] $end
$var wire 1 B block_data_in [97] $end
$var wire 1 C block_data_in [96] $end
$var wire 1 D block_data_in [95] $end
$var wire 1 E block_data_in [94] $end
$var wire 1 F block_data_in [93] $end
$var wire 1 G block_data_in [92] $end
$var wire 1 H block_data_in [91] $end
$var wire 1 I block_data_in [90] $end
$var wire 1 J block_data_in [89] $end
$var wire 1 K block_data_in [88] $end
$var wire 1 L block_data_in [87] $end
$var wire 1 M block_data_in [86] $end
$var wire 1 N block_data_in [85] $end
$var wire 1 O block_data_in [84] $end
$var wire 1 P block_data_in [83] $end
$var wire 1 Q block_data_in [82] $end
$var wire 1 R block_data_in [81] $end
$var wire 1 S block_data_in [80] $end
$var wire 1 T block_data_in [79] $end
$var wire 1 U block_data_in [78] $end
$var wire 1 V block_data_in [77] $end
$var wire 1 W block_data_in [76] $end
$var wire 1 X block_data_in [75] $end
$var wire 1 Y block_data_in [74] $end
$var wire 1 Z block_data_in [73] $end
$var wire 1 [ block_data_in [72] $end
$var wire 1 \ block_data_in [71] $end
$var wire 1 ] block_data_in [70] $end
$var wire 1 ^ block_data_in [69] $end
$var wire 1 _ block_data_in [68] $end
$var wire 1 ` block_data_in [67] $end
$var wire 1 a block_data_in [66] $end
$var wire 1 b block_data_in [65] $end
$var wire 1 c block_data_in [64] $end
$var wire 1 d block_data_in [63] $end
$var wire 1 e block_data_in [62] $end
$var wire 1 f block_data_in [61] $end
$var wire 1 g block_data_in [60] $end
$var wire 1 h block_data_in [59] $end
$var wire 1 i block_data_in [58] $end
$var wire 1 j block_data_in [57] $end
$var wire 1 k block_data_in [56] $end
$var wire 1 l block_data_in [55] $end
$var wire 1 m block_data_in [54] $end
$var wire 1 n block_data_in [53] $end
$var wire 1 o block_data_in [52] $end
$var wire 1 p block_data_in [51] $end
$var wire 1 q block_data_in [50] $end
$var wire 1 r block_data_in [49] $end
$var wire 1 s block_data_in [48] $end
$var wire 1 t block_data_in [47] $end
$var wire 1 u block_data_in [46] $end
$var wire 1 v block_data_in [45] $end
$var wire 1 w block_data_in [44] $end
$var wire 1 x block_data_in [43] $end
$var wire 1 y block_data_in [42] $end
$var wire 1 z block_data_in [41] $end
$var wire 1 { block_data_in [40] $end
$var wire 1 | block_data_in [39] $end
$var wire 1 } block_data_in [38] $end
$var wire 1 ~ block_data_in [37] $end
$var wire 1 !! block_data_in [36] $end
$var wire 1 "! block_data_in [35] $end
$var wire 1 #! block_data_in [34] $end
$var wire 1 $! block_data_in [33] $end
$var wire 1 %! block_data_in [32] $end
$var wire 1 &! block_data_in [31] $end
$var wire 1 '! block_data_in [30] $end
$var wire 1 (! block_data_in [29] $end
$var wire 1 )! block_data_in [28] $end
$var wire 1 *! block_data_in [27] $end
$var wire 1 +! block_data_in [26] $end
$var wire 1 ,! block_data_in [25] $end
$var wire 1 -! block_data_in [24] $end
$var wire 1 .! block_data_in [23] $end
$var wire 1 /! block_data_in [22] $end
$var wire 1 0! block_data_in [21] $end
$var wire 1 1! block_data_in [20] $end
$var wire 1 2! block_data_in [19] $end
$var wire 1 3! block_data_in [18] $end
$var wire 1 4! block_data_in [17] $end
$var wire 1 5! block_data_in [16] $end
$var wire 1 6! block_data_in [15] $end
$var wire 1 7! block_data_in [14] $end
$var wire 1 8! block_data_in [13] $end
$var wire 1 9! block_data_in [12] $end
$var wire 1 :! block_data_in [11] $end
$var wire 1 ;! block_data_in [10] $end
$var wire 1 <! block_data_in [9] $end
$var wire 1 =! block_data_in [8] $end
$var wire 1 >! block_data_in [7] $end
$var wire 1 ?! block_data_in [6] $end
$var wire 1 @! block_data_in [5] $end
$var wire 1 A! block_data_in [4] $end
$var wire 1 B! block_data_in [3] $end
$var wire 1 C! block_data_in [2] $end
$var wire 1 D! block_data_in [1] $end
$var wire 1 E! block_data_in [0] $end
$var wire 1 F! block_data_in_vld $end
$var wire 1 G! word_in_comb [31] $end
$var wire 1 H! word_in_comb [30] $end
$var wire 1 I! word_in_comb [29] $end
$var wire 1 J! word_in_comb [28] $end
$var wire 1 K! word_in_comb [27] $end
$var wire 1 L! word_in_comb [26] $end
$var wire 1 M! word_in_comb [25] $end
$var wire 1 N! word_in_comb [24] $end
$var wire 1 O! word_in_comb [23] $end
$var wire 1 P! word_in_comb [22] $end
$var wire 1 Q! word_in_comb [21] $end
$var wire 1 R! word_in_comb [20] $end
$var wire 1 S! word_in_comb [19] $end
$var wire 1 T! word_in_comb [18] $end
$var wire 1 U! word_in_comb [17] $end
$var wire 1 V! word_in_comb [16] $end
$var wire 1 W! word_in_comb [15] $end
$var wire 1 X! word_in_comb [14] $end
$var wire 1 Y! word_in_comb [13] $end
$var wire 1 Z! word_in_comb [12] $end
$var wire 1 [! word_in_comb [11] $end
$var wire 1 \! word_in_comb [10] $end
$var wire 1 ]! word_in_comb [9] $end
$var wire 1 ^! word_in_comb [8] $end
$var wire 1 _! word_in_comb [7] $end
$var wire 1 `! word_in_comb [6] $end
$var wire 1 a! word_in_comb [5] $end
$var wire 1 b! word_in_comb [4] $end
$var wire 1 c! word_in_comb [3] $end
$var wire 1 d! word_in_comb [2] $end
$var wire 1 e! word_in_comb [1] $end
$var wire 1 f! word_in_comb [0] $end
$var wire 1 g! word_in_comb_vld $end
$var wire 1 h! key_available $end
$var wire 1 i! sbox_available $end
$var reg 128 j! data_out [127:0] $end
$var reg 1 k! data_out_vld $end
$var wire 1 l! data_accept $end
$var wire 1 m! rnd_key_gen $end
$var reg 32 n! word_out_comb [31:0] $end
$var wire 1 o! word_out_comb_vld $end
$var wire 1 p! mix_column_off $end
$var reg 32 q! reg_x_word_store_1 [31:0] $end
$var reg 32 r! reg_x_word_store_2 [31:0] $end
$var reg 32 s! reg_x_word_store_3 [31:0] $end
$var reg 32 t! reg_x_word_store_4 [31:0] $end
$var reg 32 u! reg_y_word_store_1 [31:0] $end
$var reg 32 v! reg_y_word_store_2 [31:0] $end
$var reg 32 w! reg_y_word_store_3 [31:0] $end
$var reg 32 x! reg_y_word_store_4 [31:0] $end
$var reg 32 y! reg_flow_cntr [31:0] $end
$var reg 1 z! counter_on $end
$var wire 32 {! data_from_store_regs_1 [31:0] $end
$var wire 32 |! data_from_store_regs_2 [31:0] $end
$var wire 32 }! data_from_store_regs_3 [31:0] $end
$var wire 32 ~! data_from_store_regs_4 [31:0] $end
$var wire 2 !" input_cycle [1:0] $end
$var wire 3 "" cntr_mod_with_eight [2:0] $end
$var wire 1 #" is_mod_1_to_4 $end
$upscope $end
$upscope $end

$scope begin std $end
$upscope $end
$enddefinitions $end
#0
$dumpvars
bx j!
xk!
bx n!
bx q!
bx r!
bx s!
bx t!
bx u!
bx v!
bx w!
bx x!
bx y!
xz!
bx {!
bx |!
bx }!
bx ~!
bx !"
bx ""
b1100100 !
0"
x#"
xg!
xf!
xe!
xd!
xc!
xb!
xa!
x`!
x_!
x^!
x]!
x\!
x[!
xZ!
xY!
xX!
xW!
xV!
xU!
xT!
xS!
xR!
xQ!
xP!
xO!
xN!
xM!
xL!
xK!
xJ!
xI!
xH!
xG!
xi!
xh!
xF!
xE!
xD!
xC!
xB!
xA!
x@!
x?!
x>!
x=!
x<!
x;!
x:!
x9!
x8!
x7!
x6!
x5!
x4!
x3!
x2!
x1!
x0!
x/!
x.!
x-!
x,!
x+!
x*!
x)!
x(!
x'!
x&!
x%!
x$!
x#!
x"!
x!!
x~
x}
x|
x{
xz
xy
xx
xw
xv
xu
xt
xs
xr
xq
xp
xo
xn
xm
xl
xk
xj
xi
xh
xg
xf
xe
xd
xc
xb
xa
x`
x_
x^
x]
x\
x[
xZ
xY
xX
xW
xV
xU
xT
xS
xR
xQ
xP
xO
xN
xM
xL
xK
xJ
xI
xH
xG
xF
xE
xD
xC
xB
xA
x@
x?
x>
x=
x<
x;
x:
x9
x8
x7
x6
x5
x4
x3
x2
x1
x0
x/
x.
x-
x,
x+
x*
x)
x(
x'
x&
x%
x$
1#
xl!
xm!
xo!
xp!
$end
#3000
0#
b0 q!
b0 r!
b0 s!
b0 t!
b0 u!
b0 v!
b0 w!
b0 x!
b0 y!
0z!
0o!
0m!
b0 ""
b0 !"
b0 ~!
b0 }!
b0 |!
b0 {!
0p!
0#"
b0 n!
#5000
1"
0k!
b0 j!
#5100
1h!
1i!
1l!
#10000
0"
#15000
1"
#15100
0h!
0i!
0l!
#20000
0"
#25000
1"
#25100
1E!
0D!
0C!
1B!
1A!
1@!
0?!
1>!
1=!
1<!
0;!
0:!
09!
18!
17!
06!
15!
04!
03!
12!
11!
10!
1/!
0.!
0-!
1,!
0+!
1*!
1)!
0(!
1'!
1&!
0%!
1$!
0#!
0"!
0!!
1~
1}
1|
0{
1z
1y
1x
0w
1v
0u
1t
0s
0r
1q
1p
0o
0n
0m
1l
1k
0j
0i
0h
1g
1f
0e
1d
1c
1b
0a
0`
1_
1^
0]
1\
1[
1Z
1Y
0X
0W
1V
1U
1T
1S
0R
0Q
1P
0O
1N
0M
0L
1K
0J
1I
1H
0G
0F
1E
1D
1C
0B
1A
0@
1?
1>
1=
0<
0;
1:
19
18
07
16
05
14
13
12
11
10
1/
0.
1-
1,
0+
0*
0)
0(
0'
1&
1%
1$
1F!
#30000
0"
#35000
1"
b1 y!
1z!
b11100000110111111010111001110101 q!
b11001101001010011110011110110011 r!
b10110001100011001010111011100010 s!
b11011010011110010110001110111001 t!
1o!
1m!
b1 ""
b1 !"
1#"
b11100000110111111010111001110101 {!
b11001101001010011110011110110011 |!
b10110001100011001010111011100010 }!
b11011010011110010110001110111001 ~!
b11100000000000000000000000000000 n!
b11100000001010010000000000000000 n!
b11100000001010011010111000000000 n!
b11100000001010011010111010111001 n!
#35100
0F!
0f!
0e!
0d!
1c!
1b!
1a!
0`!
0_!
0^!
0]!
1\!
1[!
1Z!
0Y!
0X!
1W!
1V!
0U!
0T!
0S!
0R!
0Q!
0P!
1O!
1N!
1M!
1L!
1K!
1J!
1I!
0H!
1G!
1g!
#40000
0"
#45000
1"
b10111111100000011001110000111000 u!
b10 y!
b10 ""
b10 !"
b0 n!
b11001101000000000000000000000000 n!
b11001101100011000000000000000000 n!
b11001101100011000110001100000000 n!
b11001101100011000110001101110101 n!
#45100
0c!
0b!
0a!
0Z!
1Y!
0W!
1U!
1R!
1P!
0O!
0L!
0K!
0J!
0G!
#50000
0"
#55000
1"
b11 y!
b100011010100110010110000000000 v!
b11 ""
b11 !"
b0 n!
b10110001000000000000000000000000 n!
b10110001011110010000000000000000 n!
b10110001011110011010111000000000 n!
b10110001011110011010111010110011 n!
#55100
1]!
0\!
1Z!
0Y!
0V!
1T!
1Q!
1O!
0N!
0M!
1L!
1K!
1J!
0I!
1H!
#60000
0"
#65000
1"
b1011100111101100001101000000000 w!
b100 y!
b100 ""
b0 !"
b0 n!
b11011010000000000000000000000000 n!
b11011010110111110000000000000000 n!
b11011010110111111110011100000000 n!
b11011010110111111110011111100010 n!
#65100
1d!
1`!
1^!
0[!
1X!
0T!
0P!
0O!
0L!
0K!
0J!
1I!
1G!
#70000
0"
#75000
1"
b101 y!
b11100000001100100101001101000100 x!
b101 ""
b1 !"
0#"
b10111111100000011001110000111000 {!
b100011010100110010110000000000 |!
b1011100111101100001101000000000 }!
b11100000001100100101001101000100 ~!
b0 n!
b10111111000000000000000000000000 n!
b10111111010100110000000000000000 n!
b10111111010100110001101000000000 n!
b10111111010100110001101001000100 n!
#75100
1f!
1e!
1c!
1a!
1_!
0^!
0]!
1\!
0X!
1W!
0U!
1S!
0R!
1O!
1L!
1K!
0H!
0G!
#80000
0"
#85000
1"
b101100101010001001010011101111 q!
b110 y!
b110 ""
b10 !"
b0 n!
b100011000000000000000000000000 n!
b100011111101100000000000000000 n!
b100011111101100101001100000000 n!
b100011111101100101001100111000 n!
#85100
0f!
0e!
0a!
1^!
0\!
0Z!
1X!
1U!
1T!
1R!
0Q!
1P!
0O!
1M!
0K!
1J!
1H!
1G!
#90000
0"
#95000
1"
b111 y!
b11110110010111101100000111001100 r!
b111 ""
b11 !"
b0 n!
b1011100000000000000000000000000 n!
b1011100001100100000000000000000 n!
b1011100001100101001110000000000 n!
#95100
1e!
0d!
0c!
1a!
0^!
1\!
1Y!
0W!
0U!
0T!
0R!
1O!
0M!
0L!
1K!
0J!
0I!
0H!
#100000
0"
#105000
1"
b10001000110010000110010011100010 s!
b1000 y!
b0 ""
b0 !"
b0 n!
b11100000000000000000000000000000 n!
b11100000100000010000000000000000 n!
b11100000100000010010110000000000 n!
#105100
1f!
1d!
0`!
1^!
1]!
0\!
1Z!
0X!
1W!
1U!
0P!
1J!
1H!
#110000
0"
#115000
1"
b1001 y!
b11011000100010101011001110100111 t!
b1 ""
b1 !"
1#"
b101100101010001001010011101111 {!
b11110110010111101100000111001100 |!
b10001000110010000110010011100010 }!
b11011000100010101011001110100111 ~!
b0 n!
b101100000000000000000000000000 n!
b101100010111100000000000000000 n!
b101100010111100110010000000000 n!
b101100010111100110010010100111 n!
#115100
0e!
0a!
0_!
1\!
1[!
0Z!
0Y!
1V!
0S!
1P!
0O!
1L!
0K!
1I!
0G!
#120000
0"
#125000
1"
b1110100010000111000111100000101 u!
b1010 y!
b10 ""
b10 !"
b0 n!
b11110110000000000000000000000000 n!
b11110110110010000000000000000000 n!
b11110110110010001011001100000000 n!
b11110110110010001011001111101111 n!
#125100
0d!
1c!
1b!
1a!
1`!
0]!
0\!
1Z!
1Y!
0V!
1T!
1Q!
0P!
1O!
0L!
1K!
0H!
#130000
0"
#135000
1"
b1011 y!
b111000101001101011100101111001 v!
b11 ""
b11 !"
b0 n!
b10001000000000000000000000000000 n!
b10001000100010100000000000000000 n!
b10001000100010101001010000000000 n!
b10001000100010101001010011001100 n!
#135100
0f!
1d!
0c!
0b!
0`!
0[!
0Z!
0W!
1V!
0U!
1S!
1R!
1N!
1L!
1H!
#140000
0"
#145000
1"
b1111101101111010010000100100100 w!
b1100 y!
b100 ""
b0 !"
b0 n!
b11011000000000000000000000000000 n!
b11011000101010000000000000000000 n!
b11011000101010001100000100000000 n!
b11011000101010001100000111100010 n!
#145100
1c!
1\!
1Z!
0T!
0S!
0R!
0Q!
1P!
0O!
1M!
0K!
0J!
0I!
1G!
#150000
0"
#155000
1"
b1101 y!
b11000111010000010011010100101100 x!
b101 ""
b1 !"
0#"
b1110100010000111000111100000101 {!
b111000101001101011100101111001 |!
b1111101101111010010000100100100 }!
b11000111010000010011010100101100 ~!
b0 n!
b1110100000000000000000000000000 n!
b1110100101001100000000000000000 n!
b1110100101001100010000100000000 n!
b1110100101001100010000100101100 n!
#155100
1e!
0d!
1b!
0a!
1`!
1_!
1]!
1[!
0Z!
0V!
1U!
1T!
1R!
0M!
1K!
1J!
1I!
0H!
#160000
0"
#165000
1"
b10111101010101100010111111011010 q!
b1110 y!
b110 ""
b10 !"
b0 n!
b111000000000000000000000000000 n!
b111000101111010000000000000000 n!
b111000101111010011010100000000 n!
b111000101111010011010100000101 n!
#165100
0b!
1a!
0`!
0]!
0[!
0Y!
1V!
0U!
0T!
1S!
1Q!
1M!
0L!
0J!
0I!
0G!
#170000
0"
#175000
1"
b1111 y!
b1011011110010000010110101010 r!
b111 ""
b11 !"
b0 n!
b1111101000000000000000000000000 n!
b1111101010000010000000000000000 n!
b1111101010000011000111100000000 n!
b1111101010000011000111101111001 n!
#175100
0e!
0c!
0a!
1]!
0\!
1W!
1U!
1T!
0S!
0R!
0P!
1O!
0N!
0M!
1L!
1J!
1I!
1H!
1G!
#180000
0"
#185000
1"
b11111100101001111000001110000000 s!
b10000 y!
b0 ""
b0 !"
b0 n!
b11000111000000000000000000000000 n!
b11000111010000110000000000000000 n!
b11000111010000111011100100000000 n!
b11000111010000111011100100100100 n!
#185100
1f!
1d!
1b!
0]!
1Z!
1X!
0V!
0T!
1P!
1N!
1M!
0L!
0K!
0J!
#190000
0"
#195000
1"
b10001 y!
b11100011111000101101000110010101 t!
b1 ""
b1 !"
1#"
b10111101010101100010111111011010 {!
b1011011110010000010110101010 |!
b11111100101001111000001110000000 }!
b11100011111000101101000110010101 ~!
b0 n!
b10111101000000000000000000000000 n!
b10111101011110010000000000000000 n!
b10111101011110011000001100000000 n!
b10111101011110011000001110010101 n!
#195100
0f!
1e!
0d!
1a!
0_!
1]!
1[!
1Y!
0X!
1V!
1R!
0Q!
0P!
0O!
0M!
1J!
0H!
0G!
#200000
0"
#205000
1"
b110001000100111011101100110010 u!
b10010 y!
b10 ""
b10 !"
b0 n!
b1011000000000000000000000000 n!
b1011101001110000000000000000 n!
b1011101001111101000100000000 n!
b1011101001111101000111011010 n!
#205100
1f!
1d!
0b!
0^!
1\!
0Z!
1X!
0V!
0U!
0R!
1M!
0I!
1G!
#210000
0"
#215000
1"
b10011 y!
b10010011000000001110111000100111 v!
b11 ""
b11 !"
b0 n!
b11111100000000000000000000000000 n!
b11111100111000100000000000000000 n!
b11111100111000100010111100000000 n!
b11111100111000100010111110101010 n!
#215100
1c!
1b!
0a!
0\!
1Z!
0Y!
0X!
1V!
1U!
1S!
1R!
1Q!
1L!
1K!
1H!
0G!
#220000
0"
#225000
1"
b1011111001110111001101000011111 w!
b10100 y!
b100 ""
b0 !"
b0 n!
b11100011000000000000000000000000 n!
b11100011010101100000000000000000 n!
b11100011010101100000010100000000 n!
b11100011010101100000010110000000 n!
#225100
0d!
0c!
0b!
1^!
1\!
0[!
0Z!
1Y!
0Q!
1P!
1O!
0H!
1G!
#230000
0"
#235000
1"
b10101 y!
b10011111110110111010011100000011 x!
b101 ""
b1 !"
0#"
b110001000100111011101100110010 {!
b10010011000000001110111000100111 |!
b1011111001110111001101000011111 }!
b10011111110110111010011100000011 ~!
b0 n!
b110001000000000000000000000000 n!
b110001000000001001101000000000 n!
b110001000000001001101000000011 n!
#235100
0f!
1c!
1a!
1`!
0^!
0]!
0\!
0Y!
1X!
0W!
0V!
0U!
1T!
0R!
1Q!
0O!
0K!
1I!
0G!
#240000
0"
#245000
1"
b110111011011000100000001101010 q!
b10110 y!
b110 ""
b10 !"
b0 n!
b10010011000000000000000000000000 n!
b10010011001110110000000000000000 n!
b10010011001110111010011100000000 n!
b10010011001110111010011100110010 n!
#245100
0e!
1d!
0`!
1Z!
1Y!
0X!
0T!
0S!
1R!
0Q!
0M!
0J!
0I!
1G!
#250000
0"
#255000
1"
b10111 y!
b10000101010100000011000000101100 r!
b111 ""
b11 !"
b0 n!
b1011111000000000000000000000000 n!
b1011111110110110000000000000000 n!
b1011111110110111011101100000000 n!
b1011111110110111011101100100111 n!
#255100
0c!
1b!
0a!
1^!
1]!
1\!
0Z!
0Y!
1S!
0R!
0P!
1O!
0N!
1I!
1H!
0G!
#260000
0"
#265000
1"
b1100100100010000000011100010100 s!
b11000 y!
b0 ""
b0 !"
b0 n!
b10011111000000000000000000000000 n!
b10011111000100110000000000000000 n!
b10011111000100111110111000000000 n!
b10011111000100111110111000011111 n!
#265100
1e!
0b!
1_!
0\!
1[!
1X!
1W!
0S!
1R!
1Q!
1P!
0O!
1N!
1M!
1J!
0H!
#270000
0"
#275000
1"
b11001 y!
b110111011100001100101110000110 t!
b1 ""
b1 !"
1#"
b110111011011000100000001101010 {!
b10000101010100000011000000101100 |!
b1100100100010000000011100010100 }!
b110111011100001100101110000110 ~!
b0 n!
b110111000000000000000000000000 n!
b110111010100000000000000000000 n!
b110111010100000000011100000000 n!
b110111010100000000011110000110 n!
#275100
1f!
0e!
0d!
1c!
1a!
0_!
0^!
1\!
1Z!
0X!
1V!
1U!
1T!
0Q!
1K!
0I!
1G!
#280000
0"
#285000
1"
b10011111010101111001111000101001 u!
b11010 y!
b10 ""
b10 !"
b0 n!
b10000101000000000000000000000000 n!
b10000101100010000000000000000000 n!
b10000101100010001100101100000000 n!
b10000101100010001100101101101010 n!
#285100
0f!
1e!
0c!
1b!
1_!
1^!
0[!
0Z!
1X!
0V!
1S!
0R!
1Q!
0P!
0K!
0J!
1H!
#290000
0"
#295000
1"
b11011 y!
b11000111001011101100011110110010 v!
b11 ""
b11 !"
b0 n!
b1100100000000000000000000000000 n!
b1100100011100000000000000000000 n!
b1100100011100000100000000000000 n!
b1100100011100000100000000101100 n!
#295100
1f!
0e!
0b!
1`!
0]!
1[!
0U!
0T!
0Q!
1P!
0N!
0M!
0L!
1J!
0H!
0G!
#300000
0"
#305000
1"
b10000010010001100110111100001 w!
b11100 y!
b100 ""
b0 !"
b0 n!
b110111000000000000000000000000 n!
b110111011011000000000000000000 n!
b110111011011000011000000000000 n!
b110111011011000011000000010100 n!
#305100
0f!
1c!
1b!
0a!
0_!
0\!
1Z!
1Y!
0X!
0W!
1T!
0S!
1Q!
0P!
1L!
1H!
#310000
0"
#315000
1"
b11101 y!
b1010100001001000011100101011000 x!
b101 ""
b1 !"
0#"
b10011111010101111001111000101001 {!
b11000111001011101100011110110010 |!
b10000010010001100110111100001 }!
b1010100001001000011100101011000 ~!
b0 n!
b10011111000000000000000000000000 n!
b10011111001011100000000000000000 n!
b10011111001011101100110100000000 n!
b10011111001011101100110101011000 n!
#315100
1d!
0c!
0[!
0Y!
1V!
1S!
0Q!
1P!
1N!
1M!
0J!
1G!
#320000
0"
#325000
1"
b11000111010011010001000101010100 q!
b11110 y!
b110 ""
b10 !"
b0 n!
b11000111000000000000000000000000 n!
b11000111010010000000000000000000 n!
b11000111010010000011100100000000 n!
b11000111010010000011100100101001 n!
#325100
1f!
0d!
0b!
1_!
0^!
0Z!
1X!
0V!
1U!
0S!
1Q!
0P!
0N!
0M!
0L!
1K!
1J!
0G!
#330000
0"
#335000
1"
b11111 y!
b1011000001001100100000011000001 r!
b111 ""
b11 !"
b0 n!
b10000000000000000000000000000 n!
b10000001001000000000000000000 n!
b10000001001001001111000000000 n!
b10000001001001001111010110010 n!
#335100
0f!
0`!
0_!
1^!
1]!
1\!
1Z!
0X!
0U!
1S!
0Q!
1P!
0K!
#340000
0"
#345000
1"
b1010000010011000001011100000000 s!
b100000 y!
b0 ""
b0 !"
b0 n!
b1010100000000000000000000000000 n!
b1010100010101110000000000000000 n!
b1010100010101111100011100000000 n!
b1010100010101111100011111100001 n!
#345100
1f!
1e!
1c!
1b!
1`!
1_!
0]!
0Z!
1Y!
1X!
1V!
1U!
0T!
0S!
1R!
1M!
1L!
0H!
#350000
0"
#355000
1"
b100001 y!
b10110010100110110010111011011 t!
b1 ""
b1 !"
1#"
b11000111010011010001000101010100 {!
b1011000001001100100000011000001 |!
b1010000010011000001011100000000 }!
b10110010100110110010111011011 ~!
b0 n!
b11000111000000000000000000000000 n!
b11000111001001100000000000000000 n!
b11000111001001100001011100000000 n!
b11000111001001100001011111011011 n!
#355100
0f!
1d!
0c!
0b!
0_!
1]!
0\!
1Z!
0Y!
0X!
1W!
0V!
0U!
0P!
1O!
1K!
1H!
#360000
0"
#365000
1"
b1011110100100001001001101000110 u!
b100010 y!
b10 ""
b10 !"
b0 n!
b1011000000000000000000000000000 n!
b1011000010011000000000000000000 n!
b1011000010011000110010100000000 n!
b1011000010011000110010101010100 n!
#365100
1f!
0e!
0d!
1_!
0]!
1[!
0Z!
1V!
0R!
1Q!
1P!
0O!
0K!
0J!
1I!
1G!
#370000
0"
#375000
1"
b100011 y!
b11100110011000011000100111000001 v!
b11 ""
b11 !"
b0 n!
b1010000000000000000000000000000 n!
b1010000010100110000000000000000 n!
b1010000010100110001000100000000 n!
b1010000010100110001000111000001 n!
#375100
1c!
1b!
0`!
1Y!
1X!
1T!
0Q!
1O!
1N!
1K!
1J!
0I!
0G!
#380000
0"
#385000
1"
b1011111110001011110100110011001 w!
b100100 y!
b100 ""
b0 !"
b0 n!
b10110000000000000000000000000 n!
b10110010011010000000000000000 n!
b10110010011010100000000000000 n!
#385100
1e!
1a!
0^!
0V!
0P!
0O!
0K!
0H!
#390000
0"
#395000
1"
b100101 y!
b10111000001001110100010111011 x!
b101 ""
b1 !"
1p!
0#"
b1011110100100001001001101000110 {!
b11100110011000011000100111000001 |!
b1011111110001011110100110011001 }!
b10111000001001110100010111011 ~!
b0 n!
b1011110000000000000000000000000 n!
b1011110011000010000000000000000 n!
b1011110011000011110100100000000 n!
b1011110011000011110100110111011 n!
#395100
0e!
1d!
0c!
0b!
1`!
0_!
0Y!
0W!
1V!
1U!
1S!
1Q!
1O!
1K!
#400000
0"
#405000
1"
b11111101011110100100001100101 q!
b100110 y!
b110 ""
b10 !"
b0 n!
b11100110000000000000000000000000 n!
b11100110110001010000000000000000 n!
b11100110110001011110100000000000 n!
b11100110110001011110100001000110 n!
#405100
0f!
1e!
0d!
1c!
1b!
0a!
0`!
1_!
1]!
0V!
0T!
0O!
1I!
#410000
0"
#415000
1"
b100111 y!
b111111001010100100101010011010 r!
b111 ""
b11 !"
b0 n!
b1011111000000000000000000000000 n!
b1011111000001000000000000000000 n!
b1011111000001001001001100000000 n!
b1011111000001001001001111000001 n!
#415100
0e!
1d!
1a!
0_!
1^!
0]!
1Z!
0X!
1W!
0S!
1R!
1P!
0M!
0L!
0K!
1H!
#420000
0"
#425000
1"
b1110001011100101001100100111100 s!
b101000 y!
b0 ""
b0 !"
b0 n!
b10111000000000000000000000000 n!
b10111100100000000000000000000 n!
b10111100100001000100100000000 n!
b10111100100001000100110011001 n!
#425100
1f!
0d!
0b!
1_!
1\!
1Y!
1X!
0Q!
1K!
0H!
1G!
#430000
0"
#435000
1"
b101001 y!
0z!
b0 y!
b10111001010100101111110110101001 t!
1k!
b11111101011110100100001100101001111110010101001001010100110100111000101110010100110010011110010111001010100101111110110101001 j!
1l!
0o!
0m!
0p!
b0 n!
#440000
0"
#445000
1"
0k!
b0 j!
0l!
